lab3_fir/fir.vcd
$date
   Sun Oct 22 16:50:03 2023
$end
$version
  2022.1
$end
$timescale
  1ps
$end
$scope module fir_tb $end
$var wire 1 ! awready $end
$var wire 1 " wready $end
$var reg 1 # awvalid $end
$var reg 12 $ awaddr [11:0] $end
$var reg 1 % wvalid $end
$var reg 32 & wdata [31:0] $end
$var wire 1 ' arready $end
$var reg 1 ( rready $end
$var reg 1 ) arvalid $end
$var reg 12 * araddr [11:0] $end
$var wire 1 + rvalid $end
$var wire 32 , rdata [31:0] $end
$var reg 1 - ss_tvalid $end
$var reg 32 . ss_tdata [31:0] $end
$var reg 1 / ss_tlast $end
$var wire 1 0 ss_tready $end
$var reg 1 1 sm_tready $end
$var wire 1 2 sm_tvalid $end
$var wire 32 3 sm_tdata [31:0] $end
$var wire 1 4 sm_tlast $end
$var reg 1 5 axis_clk $end
$var reg 1 6 axis_rst_n $end
$var wire 4 7 tap_WE [3:0] $end
$var wire 1 8 tap_EN $end
$var wire 32 9 tap_Di [31:0] $end
$var wire 12 : tap_A [11:0] $end
$var wire 32 ; tap_Do [31:0] $end
$var wire 4 < data_WE [3:0] $end
$var wire 1 = data_EN $end
$var wire 32 > data_Di [31:0] $end
$var wire 12 ? data_A [11:0] $end
$var wire 32 @ data_Do [31:0] $end
$var reg 1 A error_coef $end
$var reg 32 B data_length [31:0] $end
$var integer 32 C Din [31:0] $end
$var integer 32 D golden [31:0] $end
$var integer 32 E input_data [31:0] $end
$var integer 32 F golden_data [31:0] $end
$var integer 32 G m [31:0] $end
$var integer 32 H i [31:0] $end
$var integer 32 I k [31:0] $end
$var reg 1 J error $end
$var integer 32 K timeout [31:0] $end
$scope module fir_DUT $end
$var wire 1 ! awready $end
$var wire 1 " wready $end
$var wire 1 L awvalid $end
$var wire 12 M awaddr [11:0] $end
$var wire 1 N wvalid $end
$var wire 32 O wdata [31:0] $end
$var wire 1 ' arready $end
$var wire 1 P rready $end
$var wire 1 Q arvalid $end
$var wire 12 R araddr [11:0] $end
$var wire 1 + rvalid $end
$var wire 32 , rdata [31:0] $end
$var wire 1 S ss_tvalid $end
$var wire 32 T ss_tdata [31:0] $end
$var wire 1 U ss_tlast $end
$var wire 1 0 ss_tready $end
$var wire 1 V sm_tready $end
$var wire 1 2 sm_tvalid $end
$var wire 32 3 sm_tdata [31:0] $end
$var wire 1 4 sm_tlast $end
$var wire 4 7 tap_WE [3:0] $end
$var wire 1 8 tap_EN $end
$var wire 32 9 tap_Di [31:0] $end
$var wire 12 : tap_A [11:0] $end
$var wire 32 ; tap_Do [31:0] $end
$var wire 4 < data_WE [3:0] $end
$var wire 1 = data_EN $end
$var wire 32 > data_Di [31:0] $end
$var wire 12 ? data_A [11:0] $end
$var wire 32 @ data_Do [31:0] $end
$var wire 1 W axis_clk $end
$var wire 1 X axis_rst_n $end
$var wire 1 Y \genblk1.clk  $end
$var wire 1 Z \genblk1.rst_n  $end
$var wire 12 [ \genblk1.w000  [11:0] $end
$var wire 12 \ \genblk1.w010  [11:0] $end
$var wire 12 ] \genblk1.w020  [11:0] $end
$var reg 4 ^ \genblk1.tcst  [3:0] $end
$var reg 2 _ \genblk1.dcst  [1:0] $end
$var reg 3 ` \genblk1.rap  [2:0] $end
$var reg 32 a \genblk1.rdl  [31:0] $end
$var reg 4 b \genblk1.r0  [3:0] $end
$var reg 4 c \genblk1.r1  [3:0] $end
$var reg 4 d \genblk1.r2  [3:0] $end
$var reg 1 e \genblk1.rawredy  $end
$var reg 1 f \genblk1.rwredy  $end
$var reg 1 g \genblk1.rarredy  $end
$var reg 1 h \genblk1.rrval  $end
$var reg 1 i \genblk1.rsslas  $end
$var reg 1 j \genblk1.rtredy  $end
$var reg 1 k \genblk1.rtval  $end
$var reg 1 l \genblk1.rtlas  $end
$var reg 32 m \genblk1.rtdi  [31:0] $end
$var reg 32 n \genblk1.rddi  [31:0] $end
$var reg 32 o \genblk1.rtdata  [31:0] $end
$var reg 12 p \genblk1.rta  [11:0] $end
$var reg 12 q \genblk1.rda  [11:0] $end
$var reg 4 r \genblk1.rtwe  [3:0] $end
$var reg 4 s \genblk1.rdwe  [3:0] $end
$upscope $end
$scope module tap_RAM $end
$var wire 1 t CLK $end
$var wire 4 7 WE [3:0] $end
$var wire 1 8 EN $end
$var wire 32 9 Di [31:0] $end
$var wire 32 ; Do [31:0] $end
$var wire 12 : A [11:0] $end
$var reg 12 u r_A [11:0] $end
$upscope $end
$scope module data_RAM $end
$var wire 1 v CLK $end
$var wire 4 < WE [3:0] $end
$var wire 1 = EN $end
$var wire 32 > Di [31:0] $end
$var wire 32 @ Do [31:0] $end
$var wire 12 ? A [11:0] $end
$var reg 12 w r_A [11:0] $end
$upscope $end
$scope task config_write $end
$var reg 12 x addr [11:0] $end
$var reg 32 y data [31:0] $end
$upscope $end
$scope task config_read_check $end
$var reg 12 z addr [11:0] $end
$var reg 32 { exp_data [31:0] $end
$var reg 32 | mask [31:0] $end
$upscope $end
$scope task ss $end
$var reg 32 } in1 [31:0] $end
$upscope $end
$scope task sm $end
$var reg 32 ~ in2 [31:0] $end
$var reg 32 !! pcnt [31:0] $end
$upscope $end
$upscope $end
$enddefinitions $end
#0
$dumpvars
0!
bx !!
0"
0#
bx $
0%
bx &
0'
x(
x)
bx *
0+
bx ,
1-
b1 .
0/
00
11
02
b0 3
04
05
06
b0 7
18
b0 9
b0 :
bx ;
b0 <
1=
b0 >
b0 ?
bx @
0A
b1001011000 B
b11111111111111111011000111100000 C
b11111111111111111011000111100001 D
b1 E
b1 F
b1001011000 G
b0 H
bx I
0J
b11110100001001000000 K
0L
bx M
0N
bx O
xP
xQ
bx R
1S
b1 T
0U
1V
0W
0X
0Y
0Z
b0 [
b10000 \
b100000 ]
b0 ^
b0 _
b100 `
b0 a
b0 b
b1010 c
b1011 d
0e
0f
0g
0h
0i
0j
0k
0l
b0 m
b0 n
b0 o
b0 p
b0 q
b0 r
b0 s
0t
bx u
0v
bx w
b10000 x
b1001011000 y
bx z
bx {
bx |
b1 }
bx ~
$end
#5000
1#
b10000 $
1%
b1001011000 &
15
bx ;
bx @
b11110100001000111111 K
1L
b10000 M
1N
b1001011000 O
1W
1Y
b0 ^
b0 _
b100 `
b0 a
b0 b
b1010 c
b1011 d
0e
0f
0g
0h
0i
0j
0k
0l
b0 m
b0 n
b0 o
b0 p
b0 q
b0 r
b0 s
1t
b0 u
1v
b0 w
#10000
05
0W
0Y
0t
0v
#15000
1!
bx ,
15
16
b11110100001000111110 K
1W
1X
1Y
1Z
b101 ^
b0 _
b100 `
b0 b
b1010 c
b1011 d
1e
0i
0j
0k
0l
b0 n
b0 o
b0 p
b0 q
b0 r
b0 s
1t
b0 u
1v
b0 w
#20000
05
0W
0Y
0t
0v
#25000
0!
1"
bx ,
15
b111111110000 :
b11110100001000111101 K
1W
1Y
b111 ^
b0 _
b0 b
b1010 c
b1011 d
0e
1f
0i
0j
0k
0l
b0 n
b0 o
b111111110000 p
b0 q
b0 r
b0 s
1t
b0 u
1v
b0 w
#30000
05
0W
0Y
0t
0v
#35000
0"
0#
0%
bx ,
15
b0 :
bx ;
b0 I
b11110100001000111100 K
0L
0N
1W
1Y
b0 ^
b0 _
b1001011000 a
b0 b
b1010 c
b1011 d
0f
0i
0j
0k
0l
b0 n
b0 o
b0 p
b0 q
b0 r
b0 s
1t
b111111110000 u
1v
b0 w
b100000 x
b0 y
#40000
05
0W
0Y
0t
0v
#45000
1#
b100000 $
1%
b0 &
15
bx ;
b11110100001000111011 K
1L
b100000 M
1N
b0 O
1W
1Y
b0 ^
b0 _
b100 `
b0 b
b1010 c
b1011 d
0i
0j
0k
0l
b0 n
b0 o
b0 p
b0 q
b0 r
b0 s
1t
b0 u
1v
b0 w
#50000
05
0W
0Y
0t
0v
#55000
1!
bx ,
15
b11110100001000111010 K
1W
1Y
b101 ^
b0 _
b100 `
b0 b
b1010 c
b1011 d
1e
0i
0j
0k
0l
b0 n
b0 o
b0 p
b0 q
b0 r
b0 s
1t
b0 u
1v
b0 w
#60000
05
0W
0Y
0t
0v
#65000
0!
1"
bx ,
15
b11110100001000111001 K
1W
1Y
b1000 ^
b0 _
b0 b
b1010 c
b1011 d
0e
1f
0i
0j
0k
0l
b0 n
b0 o
b0 p
b0 q
b0 r
b0 s
1t
b0 u
1v
b0 w
#70000
05
0W
0Y
0t
0v
#75000
0"
0#
0%
bx ,
15
b1111 7
b1 I
b11110100001000111000 K
0L
0N
1W
1Y
b0 ^
b0 _
b0 b
b1010 c
b1011 d
0f
0i
0j
0k
0l
b0 m
b0 n
b0 o
b0 p
b0 q
b1111 r
b0 s
1t
b0 u
1v
b0 w
b100100 x
b11111111111111111111111111110110 y
#80000
05
0W
0Y
0t
0v
#85000
1#
b100100 $
1%
b11111111111111111111111111110110 &
b0 ,
15
b0 7
b0 ;
b11110100001000110111 K
1L
b100100 M
1N
b11111111111111111111111111110110 O
1W
1Y
b0 ^
b0 _
b100 `
b0 b
b1010 c
b1011 d
0i
0j
0k
0l
b0 n
b0 o
b0 p
b0 q
b0 r
b0 s
1t
b0 u
1v
b0 w
#90000
05
0W
0Y
0t
0v
#95000
1!
b0 ,
15
b11110100001000110110 K
1W
1Y
b101 ^
b0 _
b100 `
b0 b
b1010 c
b1011 d
1e
0i
0j
0k
0l
b0 n
b0 o
b0 p
b0 q
b0 r
b0 s
1t
b0 u
1v
b0 w
#100000
05
0W
0Y
0t
0v
#105000
0!
1"
b0 ,
15
b100 :
b11110100001000110101 K
1W
1Y
b1000 ^
b0 _
b0 b
b1010 c
b1011 d
0e
1f
0i
0j
0k
0l
b0 n
b0 o
b100 p
b0 q
b0 r
b0 s
1t
b0 u
1v
b0 w
#110000
05
0W
0Y
0t
0v
#115000
0"
0#
0%
bx ,
15
b1111 7
b11111111111111111111111111110110 9
bx ;
b10 I
b11110100001000110100 K
0L
0N
1W
1Y
b0 ^
b0 _
b0 b
b1010 c
b1011 d
0f
0i
0j
0k
0l
b11111111111111111111111111110110 m
b0 n
b0 o
b100 p
b0 q
b1111 r
b0 s
1t
b100 u
1v
b0 w
b101000 x
b11111111111111111111111111110111 y
#120000
05
0W
0Y
0t
0v
#125000
1#
b101000 $
1%
b11111111111111111111111111110111 &
b11111111111111111111111111110110 ,
15
b0 7
b0 :
b11111111111111111111111111110110 ;
b11110100001000110011 K
1L
b101000 M
1N
b11111111111111111111111111110111 O
1W
1Y
b0 ^
b0 _
b100 `
b0 b
b1010 c
b1011 d
0i
0j
0k
0l
b0 n
b0 o
b0 p
b0 q
b0 r
b0 s
1t
b100 u
1v
b0 w
#130000
05
0W
0Y
0t
0v
#135000
1!
b0 ,
15
b0 ;
b11110100001000110010 K
1W
1Y
b101 ^
b0 _
b100 `
b0 b
b1010 c
b1011 d
1e
0i
0j
0k
0l
b0 n
b0 o
b0 p
b0 q
b0 r
b0 s
1t
b0 u
1v
b0 w
#140000
05
0W
0Y
0t
0v
#145000
0!
1"
b0 ,
15
b1000 :
b11110100001000110001 K
1W
1Y
b1000 ^
b0 _
b0 b
b1010 c
b1011 d
0e
1f
0i
0j
0k
0l
b0 n
b0 o
b1000 p
b0 q
b0 r
b0 s
1t
b0 u
1v
b0 w
#150000
05
0W
0Y
0t
0v
#155000
0"
0#
0%
bx ,
15
b1111 7
b11111111111111111111111111110111 9
bx ;
b11 I
b11110100001000110000 K
0L
0N
1W
1Y
b0 ^
b0 _
b0 b
b1010 c
b1011 d
0f
0i
0j
0k
0l
b11111111111111111111111111110111 m
b0 n
b0 o
b1000 p
b0 q
b1111 r
b0 s
1t
b1000 u
1v
b0 w
b101100 x
b10111 y
#160000
05
0W
0Y
0t
0v
#165000
1#
b101100 $
1%
b10111 &
b11111111111111111111111111110111 ,
15
b0 7
b0 :
b11111111111111111111111111110111 ;
b11110100001000101111 K
1L
b101100 M
1N
b10111 O
1W
1Y
b0 ^
b0 _
b100 `
b0 b
b1010 c
b1011 d
0i
0j
0k
0l
b0 n
b0 o
b0 p
b0 q
b0 r
b0 s
1t
b1000 u
1v
b0 w
#170000
05
0W
0Y
0t
0v
#175000
1!
b0 ,
15
b0 ;
b11110100001000101110 K
1W
1Y
b101 ^
b0 _
b100 `
b0 b
b1010 c
b1011 d
1e
0i
0j
0k
0l
b0 n
b0 o
b0 p
b0 q
b0 r
b0 s
1t
b0 u
1v
b0 w
#180000
05
0W
0Y
0t
0v
#185000
0!
1"
b0 ,
15
b1100 :
b11110100001000101101 K
1W
1Y
b1000 ^
b0 _
b0 b
b1010 c
b1011 d
0e
1f
0i
0j
0k
0l
b0 n
b0 o
b1100 p
b0 q
b0 r
b0 s
1t
b0 u
1v
b0 w
#190000
05
0W
0Y
0t
0v
#195000
0"
0#
0%
bx ,
15
b1111 7
b10111 9
bx ;
b100 I
b11110100001000101100 K
0L
0N
1W
1Y
b0 ^
b0 _
b0 b
b1010 c
b1011 d
0f
0i
0j
0k
0l
b10111 m
b0 n
b0 o
b1100 p
b0 q
b1111 r
b0 s
1t
b1100 u
1v
b0 w
b110000 x
b111000 y
#200000
05
0W
0Y
0t
0v
#205000
1#
b110000 $
1%
b111000 &
b10111 ,
15
b0 7
b0 :
b10111 ;
b11110100001000101011 K
1L
b110000 M
1N
b111000 O
1W
1Y
b0 ^
b0 _
b100 `
b0 b
b1010 c
b1011 d
0i
0j
0k
0l
b0 n
b0 o
b0 p
b0 q
b0 r
b0 s
1t
b1100 u
1v
b0 w
#210000
05
0W
0Y
0t
0v
#215000
1!
b0 ,
15
b0 ;
b11110100001000101010 K
1W
1Y
b101 ^
b0 _
b100 `
b0 b
b1010 c
b1011 d
1e
0i
0j
0k
0l
b0 n
b0 o
b0 p
b0 q
b0 r
b0 s
1t
b0 u
1v
b0 w
#220000
05
0W
0Y
0t
0v
#225000
0!
1"
b0 ,
15
b10000 :
b11110100001000101001 K
1W
1Y
b1000 ^
b0 _
b0 b
b1010 c
b1011 d
0e
1f
0i
0j
0k
0l
b0 n
b0 o
b10000 p
b0 q
b0 r
b0 s
1t
b0 u
1v
b0 w
#230000
05
0W
0Y
0t
0v
#235000
0"
0#
0%
bx ,
15
b1111 7
b111000 9
bx ;
b101 I
b11110100001000101000 K
0L
0N
1W
1Y
b0 ^
b0 _
b0 b
b1010 c
b1011 d
0f
0i
0j
0k
0l
b111000 m
b0 n
b0 o
b10000 p
b0 q
b1111 r
b0 s
1t
b10000 u
1v
b0 w
b110100 x
b111111 y
#240000
05
0W
0Y
0t
0v
#245000
1#
b110100 $
1%
b111111 &
b111000 ,
15
b0 7
b0 :
b111000 ;
b11110100001000100111 K
1L
b110100 M
1N
b111111 O
1W
1Y
b0 ^
b0 _
b100 `
b0 b
b1010 c
b1011 d
0i
0j
0k
0l
b0 n
b0 o
b0 p
b0 q
b0 r
b0 s
1t
b10000 u
1v
b0 w
#250000
05
0W
0Y
0t
0v
#255000
1!
b0 ,
15
b0 ;
b11110100001000100110 K
1W
1Y
b101 ^
b0 _
b100 `
b0 b
b1010 c
b1011 d
1e
0i
0j
0k
0l
b0 n
b0 o
b0 p
b0 q
b0 r
b0 s
1t
b0 u
1v
b0 w
#260000
05
0W
0Y
0t
0v
#265000
0!
1"
b0 ,
15
b10100 :
b11110100001000100101 K
1W
1Y
b1000 ^
b0 _
b0 b
b1010 c
b1011 d
0e
1f
0i
0j
0k
0l
b0 n
b0 o
b10100 p
b0 q
b0 r
b0 s
1t
b0 u
1v
b0 w
#270000
05
0W
0Y
0t
0v
#275000
0"
0#
0%
bx ,
15
b1111 7
b111111 9
bx ;
b110 I
b11110100001000100100 K
0L
0N
1W
1Y
b0 ^
b0 _
b0 b
b1010 c
b1011 d
0f
0i
0j
0k
0l
b111111 m
b0 n
b0 o
b10100 p
b0 q
b1111 r
b0 s
1t
b10100 u
1v
b0 w
b111000 x
b111000 y
#280000
05
0W
0Y
0t
0v
#285000
1#
b111000 $
1%
b111000 &
b111111 ,
15
b0 7
b0 :
b111111 ;
b11110100001000100011 K
1L
b111000 M
1N
b111000 O
1W
1Y
b0 ^
b0 _
b100 `
b0 b
b1010 c
b1011 d
0i
0j
0k
0l
b0 n
b0 o
b0 p
b0 q
b0 r
b0 s
1t
b10100 u
1v
b0 w
#290000
05
0W
0Y
0t
0v
#295000
1!
b0 ,
15
b0 ;
b11110100001000100010 K
1W
1Y
b101 ^
b0 _
b100 `
b0 b
b1010 c
b1011 d
1e
0i
0j
0k
0l
b0 n
b0 o
b0 p
b0 q
b0 r
b0 s
1t
b0 u
1v
b0 w
#300000
05
0W
0Y
0t
0v
#305000
0!
1"
b0 ,
15
b11000 :
b11110100001000100001 K
1W
1Y
b1000 ^
b0 _
b0 b
b1010 c
b1011 d
0e
1f
0i
0j
0k
0l
b0 n
b0 o
b11000 p
b0 q
b0 r
b0 s
1t
b0 u
1v
b0 w
#310000
05
0W
0Y
0t
0v
#315000
0"
0#
0%
bx ,
15
b1111 7
b111000 9
bx ;
b111 I
b11110100001000100000 K
0L
0N
1W
1Y
b0 ^
b0 _
b0 b
b1010 c
b1011 d
0f
0i
0j
0k
0l
b111000 m
b0 n
b0 o
b11000 p
b0 q
b1111 r
b0 s
1t
b11000 u
1v
b0 w
b111100 x
b10111 y
#320000
05
0W
0Y
0t
0v
#325000
1#
b111100 $
1%
b10111 &
b111000 ,
15
b0 7
b0 :
b111000 ;
b11110100001000011111 K
1L
b111100 M
1N
b10111 O
1W
1Y
b0 ^
b0 _
b100 `
b0 b
b1010 c
b1011 d
0i
0j
0k
0l
b0 n
b0 o
b0 p
b0 q
b0 r
b0 s
1t
b11000 u
1v
b0 w
#330000
05
0W
0Y
0t
0v
#335000
1!
b0 ,
15
b0 ;
b11110100001000011110 K
1W
1Y
b101 ^
b0 _
b100 `
b0 b
b1010 c
b1011 d
1e
0i
0j
0k
0l
b0 n
b0 o
b0 p
b0 q
b0 r
b0 s
1t
b0 u
1v
b0 w
#340000
05
0W
0Y
0t
0v
#345000
0!
1"
b0 ,
15
b11100 :
b11110100001000011101 K
1W
1Y
b1000 ^
b0 _
b0 b
b1010 c
b1011 d
0e
1f
0i
0j
0k
0l
b0 n
b0 o
b11100 p
b0 q
b0 r
b0 s
1t
b0 u
1v
b0 w
#350000
05
0W
0Y
0t
0v
#355000
0"
0#
0%
bx ,
15
b1111 7
b10111 9
bx ;
b1000 I
b11110100001000011100 K
0L
0N
1W
1Y
b0 ^
b0 _
b0 b
b1010 c
b1011 d
0f
0i
0j
0k
0l
b10111 m
b0 n
b0 o
b11100 p
b0 q
b1111 r
b0 s
1t
b11100 u
1v
b0 w
b1000000 x
b11111111111111111111111111110111 y
#360000
05
0W
0Y
0t
0v
#365000
1#
b1000000 $
1%
b11111111111111111111111111110111 &
b10111 ,
15
b0 7
b0 :
b10111 ;
b11110100001000011011 K
1L
b1000000 M
1N
b11111111111111111111111111110111 O
1W
1Y
b0 ^
b0 _
b100 `
b0 b
b1010 c
b1011 d
0i
0j
0k
0l
b0 n
b0 o
b0 p
b0 q
b0 r
b0 s
1t
b11100 u
1v
b0 w
#370000
05
0W
0Y
0t
0v
#375000
1!
b0 ,
15
b0 ;
b11110100001000011010 K
1W
1Y
b101 ^
b0 _
b100 `
b0 b
b1010 c
b1011 d
1e
0i
0j
0k
0l
b0 n
b0 o
b0 p
b0 q
b0 r
b0 s
1t
b0 u
1v
b0 w
#380000
05
0W
0Y
0t
0v
#385000
0!
1"
b0 ,
15
b100000 :
b11110100001000011001 K
1W
1Y
b1000 ^
b0 _
b0 b
b1010 c
b1011 d
0e
1f
0i
0j
0k
0l
b0 n
b0 o
b100000 p
b0 q
b0 r
b0 s
1t
b0 u
1v
b0 w
#390000
05
0W
0Y
0t
0v
#395000
0"
0#
0%
bx ,
15
b1111 7
b11111111111111111111111111110111 9
bx ;
b1001 I
b11110100001000011000 K
0L
0N
1W
1Y
b0 ^
b0 _
b0 b
b1010 c
b1011 d
0f
0i
0j
0k
0l
b11111111111111111111111111110111 m
b0 n
b0 o
b100000 p
b0 q
b1111 r
b0 s
1t
b100000 u
1v
b0 w
b1000100 x
b11111111111111111111111111110110 y
#400000
05
0W
0Y
0t
0v
#405000
1#
b1000100 $
1%
b11111111111111111111111111110110 &
b11111111111111111111111111110111 ,
15
b0 7
b0 :
b11111111111111111111111111110111 ;
b11110100001000010111 K
1L
b1000100 M
1N
b11111111111111111111111111110110 O
1W
1Y
b0 ^
b0 _
b100 `
b0 b
b1010 c
b1011 d
0i
0j
0k
0l
b0 n
b0 o
b0 p
b0 q
b0 r
b0 s
1t
b100000 u
1v
b0 w
#410000
05
0W
0Y
0t
0v
#415000
1!
b0 ,
15
b0 ;
b11110100001000010110 K
1W
1Y
b101 ^
b0 _
b100 `
b0 b
b1010 c
b1011 d
1e
0i
0j
0k
0l
b0 n
b0 o
b0 p
b0 q
b0 r
b0 s
1t
b0 u
1v
b0 w
#420000
05
0W
0Y
0t
0v
#425000
0!
1"
b0 ,
15
b100100 :
b11110100001000010101 K
1W
1Y
b1000 ^
b0 _
b0 b
b1010 c
b1011 d
0e
1f
0i
0j
0k
0l
b0 n
b0 o
b100100 p
b0 q
b0 r
b0 s
1t
b0 u
1v
b0 w
#430000
05
0W
0Y
0t
0v
#435000
0"
0#
0%
bx ,
15
b1111 7
b11111111111111111111111111110110 9
bx ;
b1010 I
b11110100001000010100 K
0L
0N
1W
1Y
b0 ^
b0 _
b0 b
b1010 c
b1011 d
0f
0i
0j
0k
0l
b11111111111111111111111111110110 m
b0 n
b0 o
b100100 p
b0 q
b1111 r
b0 s
1t
b100100 u
1v
b0 w
b1001000 x
b0 y
#440000
05
0W
0Y
0t
0v
#445000
1#
b1001000 $
1%
b0 &
b11111111111111111111111111110110 ,
15
b0 7
b0 :
b11111111111111111111111111110110 ;
b11110100001000010011 K
1L
b1001000 M
1N
b0 O
1W
1Y
b0 ^
b0 _
b100 `
b0 b
b1010 c
b1011 d
0i
0j
0k
0l
b0 n
b0 o
b0 p
b0 q
b0 r
b0 s
1t
b100100 u
1v
b0 w
#450000
05
0W
0Y
0t
0v
#455000
1!
b0 ,
15
b0 ;
b11110100001000010010 K
1W
1Y
b101 ^
b0 _
b100 `
b0 b
b1010 c
b1011 d
1e
0i
0j
0k
0l
b0 n
b0 o
b0 p
b0 q
b0 r
b0 s
1t
b0 u
1v
b0 w
#460000
05
0W
0Y
0t
0v
#465000
0!
1"
b0 ,
15
b101000 :
b11110100001000010001 K
1W
1Y
b1000 ^
b0 _
b0 b
b1010 c
b1011 d
0e
1f
0i
0j
0k
0l
b0 n
b0 o
b101000 p
b0 q
b0 r
b0 s
1t
b0 u
1v
b0 w
#470000
05
0W
0Y
0t
0v
#475000
0"
0#
0%
0)
bx ,
15
b1111 7
b0 9
bx ;
b0 I
b11110100001000010000 K
0L
0N
0Q
1W
1Y
b0 ^
b0 _
b0 b
b1010 c
b1011 d
0f
0i
0j
0k
0l
b0 m
b0 n
b0 o
b101000 p
b0 q
b1111 r
b0 s
1t
b101000 u
1v
b0 w
b100000 z
b0 {
b11111111111111111111111111111111 |
#480000
05
0W
0Y
0t
0v
#485000
1(
1)
b100000 *
b0 ,
15
b0 7
b0 :
b0 ;
b11110100001000001111 K
1P
1Q
b100000 R
1W
1Y
b0 ^
b0 _
b100 `
b0 b
b1010 c
b1011 d
0i
0j
0k
0l
b0 n
b0 o
b0 p
b0 q
b0 r
b0 s
1t
b101000 u
1v
b0 w
#490000
05
0W
0Y
0t
0v
#495000
1'
b0 ,
15
b0 ;
b11110100001000001110 K
1W
1Y
b1 ^
b0 _
b100 `
b0 b
b1010 c
b1011 d
1g
0i
0j
0k
0l
b0 n
b0 o
b0 p
b0 q
b0 r
b0 s
1t
b0 u
1v
b0 w
#500000
05
0W
0Y
0t
0v
#505000
0'
b0 ,
15
b11110100001000001101 K
1W
1Y
b100 ^
b0 _
b0 b
b1010 c
b1011 d
0g
0h
0i
0j
0k
0l
b0 n
b0 o
b0 p
b0 q
b0 r
b0 s
1t
b0 u
1v
b0 w
#510000
05
0W
0Y
0t
0v
#515000
1+
15
b11110100001000001100 K
1W
1Y
b100 ^
b0 _
b0 b
b1010 c
b1011 d
1h
0i
0j
0k
0l
b0 n
b0 o
b0 p
b0 q
b0 r
b0 s
1t
b0 u
1v
b0 w
#520000
05
0W
0Y
0t
0v
#525000
0)
0+
b0 ,
15
b1 I
b11110100001000001011 K
0Q
1W
1Y
b0 ^
b0 _
b0 b
b1010 c
b1011 d
0h
0i
0j
0k
0l
b0 n
b0 o
b0 p
b0 q
b0 r
b0 s
1t
b0 u
1v
b0 w
b100100 z
b11111111111111111111111111110110 {
b11111111111111111111111111111111 |
#530000
05
0W
0Y
0t
0v
#535000
1(
1)
b100100 *
15
b11110100001000001010 K
1Q
b100100 R
1W
1Y
b0 ^
b0 _
b100 `
b0 b
b1010 c
b1011 d
0i
0j
0k
0l
b0 n
b0 o
b0 p
b0 q
b0 r
b0 s
1t
b0 u
1v
b0 w
#540000
05
0W
0Y
0t
0v
#545000
1'
b0 ,
15
b11110100001000001001 K
1W
1Y
b1 ^
b0 _
b100 `
b0 b
b1010 c
b1011 d
1g
0i
0j
0k
0l
b0 n
b0 o
b0 p
b0 q
b0 r
b0 s
1t
b0 u
1v
b0 w
#550000
05
0W
0Y
0t
0v
#555000
0'
b0 ,
15
b100 :
b11110100001000001000 K
1W
1Y
b100 ^
b0 _
b0 b
b1010 c
b1011 d
0g
0h
0i
0j
0k
0l
b0 n
b0 o
b100 p
b0 q
b0 r
b0 s
1t
b0 u
1v
b0 w
#560000
05
0W
0Y
0t
0v
#565000
1+
b11111111111111111111111111110110 ,
15
b0 :
b11111111111111111111111111110110 ;
b11110100001000000111 K
1W
1Y
b100 ^
b0 _
b0 b
b1010 c
b1011 d
1h
0i
0j
0k
0l
b0 n
b0 o
b0 p
b0 q
b0 r
b0 s
1t
b100 u
1v
b0 w
#570000
05
0W
0Y
0t
0v
#575000
0)
0+
b0 ,
15
b0 ;
b10 I
b11110100001000000110 K
0Q
1W
1Y
b0 ^
b0 _
b0 b
b1010 c
b1011 d
0h
0i
0j
0k
0l
b0 n
b0 o
b0 p
b0 q
b0 r
b0 s
1t
b0 u
1v
b0 w
b101000 z
b11111111111111111111111111110111 {
b11111111111111111111111111111111 |
#580000
05
0W
0Y
0t
0v
#585000
1(
1)
b101000 *
15
b11110100001000000101 K
1Q
b101000 R
1W
1Y
b0 ^
b0 _
b100 `
b0 b
b1010 c
b1011 d
0i
0j
0k
0l
b0 n
b0 o
b0 p
b0 q
b0 r
b0 s
1t
b0 u
1v
b0 w
#590000
05
0W
0Y
0t
0v
#595000
1'
b0 ,
15
b11110100001000000100 K
1W
1Y
b1 ^
b0 _
b100 `
b0 b
b1010 c
b1011 d
1g
0i
0j
0k
0l
b0 n
b0 o
b0 p
b0 q
b0 r
b0 s
1t
b0 u
1v
b0 w
#600000
05
0W
0Y
0t
0v
#605000
0'
b0 ,
15
b1000 :
b11110100001000000011 K
1W
1Y
b100 ^
b0 _
b0 b
b1010 c
b1011 d
0g
0h
0i
0j
0k
0l
b0 n
b0 o
b1000 p
b0 q
b0 r
b0 s
1t
b0 u
1v
b0 w
#610000
05
0W
0Y
0t
0v
#615000
1+
b11111111111111111111111111110111 ,
15
b0 :
b11111111111111111111111111110111 ;
b11110100001000000010 K
1W
1Y
b100 ^
b0 _
b0 b
b1010 c
b1011 d
1h
0i
0j
0k
0l
b0 n
b0 o
b0 p
b0 q
b0 r
b0 s
1t
b1000 u
1v
b0 w
#620000
05
0W
0Y
0t
0v
#625000
0)
0+
b0 ,
15
b0 ;
b11 I
b11110100001000000001 K
0Q
1W
1Y
b0 ^
b0 _
b0 b
b1010 c
b1011 d
0h
0i
0j
0k
0l
b0 n
b0 o
b0 p
b0 q
b0 r
b0 s
1t
b0 u
1v
b0 w
b101100 z
b10111 {
b11111111111111111111111111111111 |
#630000
05
0W
0Y
0t
0v
#635000
1(
1)
b101100 *
15
b11110100001000000000 K
1Q
b101100 R
1W
1Y
b0 ^
b0 _
b100 `
b0 b
b1010 c
b1011 d
0i
0j
0k
0l
b0 n
b0 o
b0 p
b0 q
b0 r
b0 s
1t
b0 u
1v
b0 w
#640000
05
0W
0Y
0t
0v
#645000
1'
b0 ,
15
b11110100000111111111 K
1W
1Y
b1 ^
b0 _
b100 `
b0 b
b1010 c
b1011 d
1g
0i
0j
0k
0l
b0 n
b0 o
b0 p
b0 q
b0 r
b0 s
1t
b0 u
1v
b0 w
#650000
05
0W
0Y
0t
0v
#655000
0'
b0 ,
15
b1100 :
b11110100000111111110 K
1W
1Y
b100 ^
b0 _
b0 b
b1010 c
b1011 d
0g
0h
0i
0j
0k
0l
b0 n
b0 o
b1100 p
b0 q
b0 r
b0 s
1t
b0 u
1v
b0 w
#660000
05
0W
0Y
0t
0v
#665000
1+
b10111 ,
15
b0 :
b10111 ;
b11110100000111111101 K
1W
1Y
b100 ^
b0 _
b0 b
b1010 c
b1011 d
1h
0i
0j
0k
0l
b0 n
b0 o
b0 p
b0 q
b0 r
b0 s
1t
b1100 u
1v
b0 w
#670000
05
0W
0Y
0t
0v
#675000
0)
0+
b0 ,
15
b0 ;
b100 I
b11110100000111111100 K
0Q
1W
1Y
b0 ^
b0 _
b0 b
b1010 c
b1011 d
0h
0i
0j
0k
0l
b0 n
b0 o
b0 p
b0 q
b0 r
b0 s
1t
b0 u
1v
b0 w
b110000 z
b111000 {
b11111111111111111111111111111111 |
#680000
05
0W
0Y
0t
0v
#685000
1(
1)
b110000 *
15
b11110100000111111011 K
1Q
b110000 R
1W
1Y
b0 ^
b0 _
b100 `
b0 b
b1010 c
b1011 d
0i
0j
0k
0l
b0 n
b0 o
b0 p
b0 q
b0 r
b0 s
1t
b0 u
1v
b0 w
